{
  "page": 1,
  "per_page": 15,
  "photos": [
    {
      "id": 146083,
      "width": 3264,
      "height": 4928,
      "url": "https://www.pexels.com/photo/2-kuala-bears-on-brown-wood-tree-branch-146083/",
      "photographer": "Flickr",
      "photographer_url": "https://www.pexels.com/@flickr",
      "photographer_id": 42313,
      "avg_color": "#786D53",
      "src": {
        "original": "https://images.pexels.com/photos/146083/pexels-photo-146083.jpeg",
        "large2x": "https://images.pexels.com/photos/146083/pexels-photo-146083.jpeg?auto=compress&cs=tinysrgb&dpr=2&h=650&w=940",
        "large": "https://images.pexels.com/photos/146083/pexels-photo-146083.jpeg?auto=compress&cs=tinysrgb&h=650&w=940",
        "medium": "https://images.pexels.com/photos/146083/pexels-photo-146083.jpeg?auto=compress&cs=tinysrgb&h=350",
        "small": "https://images.pexels.com/photos/146083/pexels-photo-146083.jpeg?auto=compress&cs=tinysrgb&h=130",
        "portrait": "https://images.pexels.com/photos/146083/pexels-photo-146083.jpeg?auto=compress&cs=tinysrgb&fit=crop&h=1200&w=800",
        "landscape": "https://images.pexels.com/photos/146083/pexels-photo-146083.jpeg?auto=compress&cs=tinysrgb&fit=crop&h=627&w=1200",
        "tiny": "https://images.pexels.com/photos/146083/pexels-photo-146083.jpeg?auto=compress&cs=tinysrgb&dpr=1&fit=crop&h=200&w=280"
      },
      "liked": false
    },
    {
      "id": 3690511,
      "width": 3611,
      "height": 4514,
      "url": "https://www.pexels.com/photo/photo-of-deer-on-snow-3690511/",
      "photographer": "Louis",
      "photographer_url": "https://www.pexels.com/@louis-965146",
      "photographer_id": 965146,
      "avg_color": "#9B9A98",
      "src": {
        "original": "https://images.pexels.com/photos/3690511/pexels-photo-3690511.jpeg",
        "large2x": "https://images.pexels.com/photos/3690511/pexels-photo-3690511.jpeg?auto=compress&cs=tinysrgb&dpr=2&h=650&w=940",
        "large": "https://images.pexels.com/photos/3690511/pexels-photo-3690511.jpeg?auto=compress&cs=tinysrgb&h=650&w=940",
        "medium": "https://images.pexels.com/photos/3690511/pexels-photo-3690511.jpeg?auto=compress&cs=tinysrgb&h=350",
        "small": "https://images.pexels.com/photos/3690511/pexels-photo-3690511.jpeg?auto=compress&cs=tinysrgb&h=130",
        "portrait": "https://images.pexels.com/photos/3690511/pexels-photo-3690511.jpeg?auto=compress&cs=tinysrgb&fit=crop&h=1200&w=800",
        "landscape": "https://images.pexels.com/photos/3690511/pexels-photo-3690511.jpeg?auto=compress&cs=tinysrgb&fit=crop&h=627&w=1200",
        "tiny": "https://images.pexels.com/photos/3690511/pexels-photo-3690511.jpeg?auto=compress&cs=tinysrgb&dpr=1&fit=crop&h=200&w=280"
      },
      "liked": false
    },
    {
      "id": 4588065,
      "width": 3749,
      "height": 5623,
      "url": "https://www.pexels.com/photo/white-rabbit-wearing-yellow-eyeglasses-4588065/",
      "photographer": "Anna Shvets",
      "photographer_url": "https://www.pexels.com/@shvetsa",
      "photographer_id": 1984515,
      "avg_color": "#F5E489",
      "src": {
        "original": "https://images.pexels.com/photos/4588065/pexels-photo-4588065.jpeg",
        "large2x": "https://images.pexels.com/photos/4588065/pexels-photo-4588065.jpeg?auto=compress&cs=tinysrgb&dpr=2&h=650&w=940",
        "large": "https://images.pexels.com/photos/4588065/pexels-photo-4588065.jpeg?auto=compress&cs=tinysrgb&h=650&w=940",
        "medium": "https://images.pexels.com/photos/4588065/pexels-photo-4588065.jpeg?auto=compress&cs=tinysrgb&h=350",
        "small": "https://images.pexels.com/photos/4588065/pexels-photo-4588065.jpeg?auto=compress&cs=tinysrgb&h=130",
        "portrait": "https://images.pexels.com/photos/4588065/pexels-photo-4588065.jpeg?auto=compress&cs=tinysrgb&fit=crop&h=1200&w=800",
        "landscape": "https://images.pexels.com/photos/4588065/pexels-photo-4588065.jpeg?auto=compress&cs=tinysrgb&fit=crop&h=627&w=1200",
        "tiny": "https://images.pexels.com/photos/4588065/pexels-photo-4588065.jpeg?auto=compress&cs=tinysrgb&dpr=1&fit=crop&h=200&w=280"
      },
      "liked": false
    },
    {
      "id": 3551498,
      "width": 4194,
      "height": 3237,
      "url": "https://www.pexels.com/photo/photo-of-elephants-on-grass-3551498/",
      "photographer": "Aenic Visuals",
      "photographer_url": "https://www.pexels.com/@aenic",
      "photographer_id": 466989,
      "avg_color": "#78736F",
      "src": {
        "original": "https://images.pexels.com/photos/3551498/pexels-photo-3551498.jpeg",
        "large2x": "https://images.pexels.com/photos/3551498/pexels-photo-3551498.jpeg?auto=compress&cs=tinysrgb&dpr=2&h=650&w=940",
        "large": "https://images.pexels.com/photos/3551498/pexels-photo-3551498.jpeg?auto=compress&cs=tinysrgb&h=650&w=940",
        "medium": "https://images.pexels.com/photos/3551498/pexels-photo-3551498.jpeg?auto=compress&cs=tinysrgb&h=350",
        "small": "https://images.pexels.com/photos/3551498/pexels-photo-3551498.jpeg?auto=compress&cs=tinysrgb&h=130",
        "portrait": "https://images.pexels.com/photos/3551498/pexels-photo-3551498.jpeg?auto=compress&cs=tinysrgb&fit=crop&h=1200&w=800",
        "landscape": "https://images.pexels.com/photos/3551498/pexels-photo-3551498.jpeg?auto=compress&cs=tinysrgb&fit=crop&h=627&w=1200",
        "tiny": "https://images.pexels.com/photos/3551498/pexels-photo-3551498.jpeg?auto=compress&cs=tinysrgb&dpr=1&fit=crop&h=200&w=280"
      },
      "liked": false
    },
    {
      "id": 41315,
      "width": 1206,
      "height": 1809,
      "url": "https://www.pexels.com/photo/yellow-animal-eyes-fur-41315/",
      "photographer": "Public Domain Pictures",
      "photographer_url": "https://www.pexels.com/@public-domain-pictures",
      "photographer_id": 3720,
      "avg_color": "#CA9B6B",
      "src": {
        "original": "https://images.pexels.com/photos/41315/africa-african-animal-cat-41315.jpeg",
        "large2x": "https://images.pexels.com/photos/41315/africa-african-animal-cat-41315.jpeg?auto=compress&cs=tinysrgb&dpr=2&h=650&w=940",
        "large": "https://images.pexels.com/photos/41315/africa-african-animal-cat-41315.jpeg?auto=compress&cs=tinysrgb&h=650&w=940",
        "medium": "https://images.pexels.com/photos/41315/africa-african-animal-cat-41315.jpeg?auto=compress&cs=tinysrgb&h=350",
        "small": "https://images.pexels.com/photos/41315/africa-african-animal-cat-41315.jpeg?auto=compress&cs=tinysrgb&h=130",
        "portrait": "https://images.pexels.com/photos/41315/africa-african-animal-cat-41315.jpeg?auto=compress&cs=tinysrgb&fit=crop&h=1200&w=800",
        "landscape": "https://images.pexels.com/photos/41315/africa-african-animal-cat-41315.jpeg?auto=compress&cs=tinysrgb&fit=crop&h=627&w=1200",
        "tiny": "https://images.pexels.com/photos/41315/africa-african-animal-cat-41315.jpeg?auto=compress&cs=tinysrgb&dpr=1&fit=crop&h=200&w=280"
      },
      "liked": false
    },
    {
      "id": 3493730,
      "width": 4000,
      "height": 6000,
      "url": "https://www.pexels.com/photo/monkeys-sitting-on-rock-3493730/",
      "photographer": "Aleksey Kuprikov",
      "photographer_url": "https://www.pexels.com/@aleksey-kuprikov-1883853",
      "photographer_id": 1883853,
      "avg_color": "#848677",
      "src": {
        "original": "https://images.pexels.com/photos/3493730/pexels-photo-3493730.jpeg",
        "large2x": "https://images.pexels.com/photos/3493730/pexels-photo-3493730.jpeg?auto=compress&cs=tinysrgb&dpr=2&h=650&w=940",
        "large": "https://images.pexels.com/photos/3493730/pexels-photo-3493730.jpeg?auto=compress&cs=tinysrgb&h=650&w=940",
        "medium": "https://images.pexels.com/photos/3493730/pexels-photo-3493730.jpeg?auto=compress&cs=tinysrgb&h=350",
        "small": "https://images.pexels.com/photos/3493730/pexels-photo-3493730.jpeg?auto=compress&cs=tinysrgb&h=130",
        "portrait": "https://images.pexels.com/photos/3493730/pexels-photo-3493730.jpeg?auto=compress&cs=tinysrgb&fit=crop&h=1200&w=800",
        "landscape": "https://images.pexels.com/photos/3493730/pexels-photo-3493730.jpeg?auto=compress&cs=tinysrgb&fit=crop&h=627&w=1200",
        "tiny": "https://images.pexels.com/photos/3493730/pexels-photo-3493730.jpeg?auto=compress&cs=tinysrgb&dpr=1&fit=crop&h=200&w=280"
      },
      "liked": false
    },
    {
      "id": 567540,
      "width": 4096,
      "height": 3047,
      "url": "https://www.pexels.com/photo/red-chameleon-567540/",
      "photographer": "George Lebada",
      "photographer_url": "https://www.pexels.com/@george-lebada-175028",
      "photographer_id": 175028,
      "avg_color": "#3B504E",
      "src": {
        "original": "https://images.pexels.com/photos/567540/pexels-photo-567540.jpeg",
        "large2x": "https://images.pexels.com/photos/567540/pexels-photo-567540.jpeg?auto=compress&cs=tinysrgb&dpr=2&h=650&w=940",
        "large": "https://images.pexels.com/photos/567540/pexels-photo-567540.jpeg?auto=compress&cs=tinysrgb&h=650&w=940",
        "medium": "https://images.pexels.com/photos/567540/pexels-photo-567540.jpeg?auto=compress&cs=tinysrgb&h=350",
        "small": "https://images.pexels.com/photos/567540/pexels-photo-567540.jpeg?auto=compress&cs=tinysrgb&h=130",
        "portrait": "https://images.pexels.com/photos/567540/pexels-photo-567540.jpeg?auto=compress&cs=tinysrgb&fit=crop&h=1200&w=800",
        "landscape": "https://images.pexels.com/photos/567540/pexels-photo-567540.jpeg?auto=compress&cs=tinysrgb&fit=crop&h=627&w=1200",
        "tiny": "https://images.pexels.com/photos/567540/pexels-photo-567540.jpeg?auto=compress&cs=tinysrgb&dpr=1&fit=crop&h=200&w=280"
      },
      "liked": false
    },
    {
      "id": 4666751,
      "width": 2832,
      "height": 4240,
      "url": "https://www.pexels.com/photo/photo-of-whale-underwater-4666751/",
      "photographer": "Elianne Dipp",
      "photographer_url": "https://www.pexels.com/@eliannedipp",
      "photographer_id": 3076080,
      "avg_color": "#4F7E9D",
      "src": {
        "original": "https://images.pexels.com/photos/4666751/pexels-photo-4666751.jpeg",
        "large2x": "https://images.pexels.com/photos/4666751/pexels-photo-4666751.jpeg?auto=compress&cs=tinysrgb&dpr=2&h=650&w=940",
        "large": "https://images.pexels.com/photos/4666751/pexels-photo-4666751.jpeg?auto=compress&cs=tinysrgb&h=650&w=940",
        "medium": "https://images.pexels.com/photos/4666751/pexels-photo-4666751.jpeg?auto=compress&cs=tinysrgb&h=350",
        "small": "https://images.pexels.com/photos/4666751/pexels-photo-4666751.jpeg?auto=compress&cs=tinysrgb&h=130",
        "portrait": "https://images.pexels.com/photos/4666751/pexels-photo-4666751.jpeg?auto=compress&cs=tinysrgb&fit=crop&h=1200&w=800",
        "landscape": "https://images.pexels.com/photos/4666751/pexels-photo-4666751.jpeg?auto=compress&cs=tinysrgb&fit=crop&h=627&w=1200",
        "tiny": "https://images.pexels.com/photos/4666751/pexels-photo-4666751.jpeg?auto=compress&cs=tinysrgb&dpr=1&fit=crop&h=200&w=280"
      },
      "liked": false
    },
    {
      "id": 3608263,
      "width": 2592,
      "height": 3872,
      "url": "https://www.pexels.com/photo/panda-bear-on-green-grass-3608263/",
      "photographer": "Laura The Explaura",
      "photographer_url": "https://www.pexels.com/@laurathexplaura",
      "photographer_id": 1342512,
      "avg_color": "#62655F",
      "src": {
        "original": "https://images.pexels.com/photos/3608263/pexels-photo-3608263.jpeg",
        "large2x": "https://images.pexels.com/photos/3608263/pexels-photo-3608263.jpeg?auto=compress&cs=tinysrgb&dpr=2&h=650&w=940",
        "large": "https://images.pexels.com/photos/3608263/pexels-photo-3608263.jpeg?auto=compress&cs=tinysrgb&h=650&w=940",
        "medium": "https://images.pexels.com/photos/3608263/pexels-photo-3608263.jpeg?auto=compress&cs=tinysrgb&h=350",
        "small": "https://images.pexels.com/photos/3608263/pexels-photo-3608263.jpeg?auto=compress&cs=tinysrgb&h=130",
        "portrait": "https://images.pexels.com/photos/3608263/pexels-photo-3608263.jpeg?auto=compress&cs=tinysrgb&fit=crop&h=1200&w=800",
        "landscape": "https://images.pexels.com/photos/3608263/pexels-photo-3608263.jpeg?auto=compress&cs=tinysrgb&fit=crop&h=627&w=1200",
        "tiny": "https://images.pexels.com/photos/3608263/pexels-photo-3608263.jpeg?auto=compress&cs=tinysrgb&dpr=1&fit=crop&h=200&w=280"
      },
      "liked": false
    },
    {
      "id": 3614358,
      "width": 2685,
      "height": 3356,
      "url": "https://www.pexels.com/photo/macro-photo-of-red-blue-and-green-bird-feather-3614358/",
      "photographer": "Jan Kopřiva",
      "photographer_url": "https://www.pexels.com/@koprivakart",
      "photographer_id": 1721787,
      "avg_color": "#8F653E",
      "src": {
        "original": "https://images.pexels.com/photos/3614358/pexels-photo-3614358.jpeg",
        "large2x": "https://images.pexels.com/photos/3614358/pexels-photo-3614358.jpeg?auto=compress&cs=tinysrgb&dpr=2&h=650&w=940",
        "large": "https://images.pexels.com/photos/3614358/pexels-photo-3614358.jpeg?auto=compress&cs=tinysrgb&h=650&w=940",
        "medium": "https://images.pexels.com/photos/3614358/pexels-photo-3614358.jpeg?auto=compress&cs=tinysrgb&h=350",
        "small": "https://images.pexels.com/photos/3614358/pexels-photo-3614358.jpeg?auto=compress&cs=tinysrgb&h=130",
        "portrait": "https://images.pexels.com/photos/3614358/pexels-photo-3614358.jpeg?auto=compress&cs=tinysrgb&fit=crop&h=1200&w=800",
        "landscape": "https://images.pexels.com/photos/3614358/pexels-photo-3614358.jpeg?auto=compress&cs=tinysrgb&fit=crop&h=627&w=1200",
        "tiny": "https://images.pexels.com/photos/3614358/pexels-photo-3614358.jpeg?auto=compress&cs=tinysrgb&dpr=1&fit=crop&h=200&w=280"
      },
      "liked": false
    },
    {
      "id": 689784,
      "width": 4339,
      "height": 2892,
      "url": "https://www.pexels.com/photo/selective-focus-photography-of-two-penguins-689784/",
      "photographer": "DSD",
      "photographer_url": "https://www.pexels.com/@dsd-143941",
      "photographer_id": 143941,
      "avg_color": "#888A8D",
      "src": {
        "original": "https://images.pexels.com/photos/689784/pexels-photo-689784.jpeg",
        "large2x": "https://images.pexels.com/photos/689784/pexels-photo-689784.jpeg?auto=compress&cs=tinysrgb&dpr=2&h=650&w=940",
        "large": "https://images.pexels.com/photos/689784/pexels-photo-689784.jpeg?auto=compress&cs=tinysrgb&h=650&w=940",
        "medium": "https://images.pexels.com/photos/689784/pexels-photo-689784.jpeg?auto=compress&cs=tinysrgb&h=350",
        "small": "https://images.pexels.com/photos/689784/pexels-photo-689784.jpeg?auto=compress&cs=tinysrgb&h=130",
        "portrait": "https://images.pexels.com/photos/689784/pexels-photo-689784.jpeg?auto=compress&cs=tinysrgb&fit=crop&h=1200&w=800",
        "landscape": "https://images.pexels.com/photos/689784/pexels-photo-689784.jpeg?auto=compress&cs=tinysrgb&fit=crop&h=627&w=1200",
        "tiny": "https://images.pexels.com/photos/689784/pexels-photo-689784.jpeg?auto=compress&cs=tinysrgb&dpr=1&fit=crop&h=200&w=280"
      },
      "liked": false
    },
    {
      "id": 65289,
      "width": 4272,
      "height": 2848,
      "url": "https://www.pexels.com/photo/nature-couple-love-heart-65289/",
      "photographer": "Pixabay",
      "photographer_url": "https://www.pexels.com/@pixabay",
      "photographer_id": 2659,
      "avg_color": "#9B9B9B",
      "src": {
        "original": "https://images.pexels.com/photos/65289/polar-bear-bear-teddy-sleep-65289.jpeg",
        "large2x": "https://images.pexels.com/photos/65289/polar-bear-bear-teddy-sleep-65289.jpeg?auto=compress&cs=tinysrgb&dpr=2&h=650&w=940",
        "large": "https://images.pexels.com/photos/65289/polar-bear-bear-teddy-sleep-65289.jpeg?auto=compress&cs=tinysrgb&h=650&w=940",
        "medium": "https://images.pexels.com/photos/65289/polar-bear-bear-teddy-sleep-65289.jpeg?auto=compress&cs=tinysrgb&h=350",
        "small": "https://images.pexels.com/photos/65289/polar-bear-bear-teddy-sleep-65289.jpeg?auto=compress&cs=tinysrgb&h=130",
        "portrait": "https://images.pexels.com/photos/65289/polar-bear-bear-teddy-sleep-65289.jpeg?auto=compress&cs=tinysrgb&fit=crop&h=1200&w=800",
        "landscape": "https://images.pexels.com/photos/65289/polar-bear-bear-teddy-sleep-65289.jpeg?auto=compress&cs=tinysrgb&fit=crop&h=627&w=1200",
        "tiny": "https://images.pexels.com/photos/65289/polar-bear-bear-teddy-sleep-65289.jpeg?auto=compress&cs=tinysrgb&dpr=1&fit=crop&h=200&w=280"
      },
      "liked": false
    },
    {
      "id": 1894350,
      "width": 3200,
      "height": 4800,
      "url": "https://www.pexels.com/photo/jellyfish-underwater-1894350/",
      "photographer": "Guillaume Meurice",
      "photographer_url": "https://www.pexels.com/@sliceisop",
      "photographer_id": 188188,
      "avg_color": "#153559",
      "src": {
        "original": "https://images.pexels.com/photos/1894350/pexels-photo-1894350.jpeg",
        "large2x": "https://images.pexels.com/photos/1894350/pexels-photo-1894350.jpeg?auto=compress&cs=tinysrgb&dpr=2&h=650&w=940",
        "large": "https://images.pexels.com/photos/1894350/pexels-photo-1894350.jpeg?auto=compress&cs=tinysrgb&h=650&w=940",
        "medium": "https://images.pexels.com/photos/1894350/pexels-photo-1894350.jpeg?auto=compress&cs=tinysrgb&h=350",
        "small": "https://images.pexels.com/photos/1894350/pexels-photo-1894350.jpeg?auto=compress&cs=tinysrgb&h=130",
        "portrait": "https://images.pexels.com/photos/1894350/pexels-photo-1894350.jpeg?auto=compress&cs=tinysrgb&fit=crop&h=1200&w=800",
        "landscape": "https://images.pexels.com/photos/1894350/pexels-photo-1894350.jpeg?auto=compress&cs=tinysrgb&fit=crop&h=627&w=1200",
        "tiny": "https://images.pexels.com/photos/1894350/pexels-photo-1894350.jpeg?auto=compress&cs=tinysrgb&dpr=1&fit=crop&h=200&w=280"
      },
      "liked": false
    },
    {
      "id": 3690509,
      "width": 4000,
      "height": 5000,
      "url": "https://www.pexels.com/photo/person-feeding-brown-deer-with-carrot-3690509/",
      "photographer": "Louis",
      "photographer_url": "https://www.pexels.com/@louis-965146",
      "photographer_id": 965146,
      "avg_color": "#676A6A",
      "src": {
        "original": "https://images.pexels.com/photos/3690509/pexels-photo-3690509.jpeg",
        "large2x": "https://images.pexels.com/photos/3690509/pexels-photo-3690509.jpeg?auto=compress&cs=tinysrgb&dpr=2&h=650&w=940",
        "large": "https://images.pexels.com/photos/3690509/pexels-photo-3690509.jpeg?auto=compress&cs=tinysrgb&h=650&w=940",
        "medium": "https://images.pexels.com/photos/3690509/pexels-photo-3690509.jpeg?auto=compress&cs=tinysrgb&h=350",
        "small": "https://images.pexels.com/photos/3690509/pexels-photo-3690509.jpeg?auto=compress&cs=tinysrgb&h=130",
        "portrait": "https://images.pexels.com/photos/3690509/pexels-photo-3690509.jpeg?auto=compress&cs=tinysrgb&fit=crop&h=1200&w=800",
        "landscape": "https://images.pexels.com/photos/3690509/pexels-photo-3690509.jpeg?auto=compress&cs=tinysrgb&fit=crop&h=627&w=1200",
        "tiny": "https://images.pexels.com/photos/3690509/pexels-photo-3690509.jpeg?auto=compress&cs=tinysrgb&dpr=1&fit=crop&h=200&w=280"
      },
      "liked": false
    },
    {
      "id": 3396657,
      "width": 4000,
      "height": 5000,
      "url": "https://www.pexels.com/photo/two-brown-lama-3396657/",
      "photographer": "Josiah Farrow",
      "photographer_url": "https://www.pexels.com/@josiahfarrow",
      "photographer_id": 1820400,
      "avg_color": "#706A5B",
      "src": {
        "original": "https://images.pexels.com/photos/3396657/pexels-photo-3396657.jpeg",
        "large2x": "https://images.pexels.com/photos/3396657/pexels-photo-3396657.jpeg?auto=compress&cs=tinysrgb&dpr=2&h=650&w=940",
        "large": "https://images.pexels.com/photos/3396657/pexels-photo-3396657.jpeg?auto=compress&cs=tinysrgb&h=650&w=940",
        "medium": "https://images.pexels.com/photos/3396657/pexels-photo-3396657.jpeg?auto=compress&cs=tinysrgb&h=350",
        "small": "https://images.pexels.com/photos/3396657/pexels-photo-3396657.jpeg?auto=compress&cs=tinysrgb&h=130",
        "portrait": "https://images.pexels.com/photos/3396657/pexels-photo-3396657.jpeg?auto=compress&cs=tinysrgb&fit=crop&h=1200&w=800",
        "landscape": "https://images.pexels.com/photos/3396657/pexels-photo-3396657.jpeg?auto=compress&cs=tinysrgb&fit=crop&h=627&w=1200",
        "tiny": "https://images.pexels.com/photos/3396657/pexels-photo-3396657.jpeg?auto=compress&cs=tinysrgb&dpr=1&fit=crop&h=200&w=280"
      },
      "liked": false
    }
  ],
  "total_results": 8000,
  "next_page": "https://api.pexels.com/v1/search/?page=2&per_page=15&query=animals"
}